id,name,emailId,mobile,gender,verified,approved,creditLimit,commentBlock,referredBy,deviceName,vehicleCategory,vehicleNumber,Make,Model,Year,onlineStatus,created_at
TEST001,username,user@gmail.com,123546,Male,1,1,200,,,,Van,Vehicle-no,ACURA,INTEGRA,2018,0,23/07/19 08:00
TEST002,username,user@gmail.com,123546,Male,1,1,200,,,,Van,Vehicle-no,ACURA,INTEGRA,2018,0,23/07/19 08:00
